{
  "name": "Prototype development",
  "activities": [
    {
      "name": "Tank testing",
      "description": "Perform tank testing at 1/20th scale",
      "further_details": "Duration of tests must have been greater than X months",
      "metrics": [
        {
          "name": "Conversion efficiency of PTO",
          "unit": "%",
          "evaluation_area": "Energy Delivery",
          "description": "Estimated full-scale conversion efficiency informed by tank test results."
        }
      ],
      "complete": true
    },
    {
      "name": "Numerical modelling",
      "description": "Numerical simulations of scale model",
      "further_details": "Should ideally include comparisons of tank results and numerical models",
      "metrics": [
        {
          "name": "Conversion efficiency of PTO",
          "unit": "%",
          "evaluation_area": "Energy Delivery",
          "description": "Estimated full-scale conversion efficiency informed by numerical modelling results."
        }
      ],
      "complete": true
    }
  ],
  "percent_activity_category_complete": 50.0
}
