{
    "__type__": "dtosc:point:outputs:EPDWinds",
    "name": "none",
    "description": "",
    "mag10": {
        "__type__": "dtosc:outputs:EPD",
        "name": "none",
        "description": "",
        "latitude": 0.0,
        "longitude": 0.0,
        "bins": [
            0.0
        ],
        "pdf": [
            0.0
        ]
    },
    "mag10_monthly": {
        "__type__": "dtosc:outputs:EPDMonthly",
        "name": "none",
        "description": "",
        "latitude": 0.0,
        "longitude": 0.0,
        "bins": [
            0.0
        ],
        "pdf": [
            [
                0.0
            ]
        ]
    },
    "theta10": {
        "__type__": "dtosc:outputs:EPD",
        "name": "none",
        "description": "",
        "latitude": 0.0,
        "longitude": 0.0,
        "bins": [
            0.0
        ],
        "pdf": [
            0.0
        ]
    },
    "theta10_monthly": {
        "__type__": "dtosc:outputs:EPDMonthly",
        "name": "none",
        "description": "",
        "latitude": 0.0,
        "longitude": 0.0,
        "bins": [
            0.0
        ],
        "pdf": [
            [
                0.0
            ]
        ]
    }
}
