{
    "__type__": "dtosc:outputs:SMWaves",
    "name": "none",
    "description": "",
    "x": [
        0.0
    ],
    "y": [
        0.0
    ],
    "HS": [
        [
            [
                0.0
            ]
        ]
    ],
    "TP": [
        [
            [
                0.0
            ]
        ]
    ],
    "DP": [
        [
            [
                0.0
            ]
        ]
    ],
    "p": [
        0.0
    ]
}
