{
    "__type__": "dtosc:outputs:EXT",
    "name": "none",
    "description": "",
    "latitude": 0.0,
    "longitude": 0.0,
    "return_periods": [
        0.0
    ],
    "return_values": [
        0.0
    ]
}
