{
    "__type__": "dtosc:point:outputs:StatsCurrents",
    "name": "none",
    "description": "",
    "Basic": {
        "__type__": "dtosc:point:outputs:BasicCurrents",
        "name": "none",
        "description": "",
        "mag": {
            "__type__": "dtosc:outputs:BasicStats",
            "name": "none",
            "description": "",
            "latitude": 0.0,
            "longitude": 0.0,
            "mean": 0.0,
            "min": 0.0,
            "max": 0.0,
            "median": 0.0,
            "std": 0.0
        },
        "Flux": {
            "__type__": "dtosc:outputs:BasicStats",
            "name": "none",
            "description": "",
            "latitude": 0.0,
            "longitude": 0.0,
            "mean": 0.0,
            "min": 0.0,
            "max": 0.0,
            "median": 0.0,
            "std": 0.0
        }
    },
    "EPD": {
        "__type__": "dtosc:point:outputs:EPDCurrents",
        "name": "none",
        "description": "",
        "mag": {
            "__type__": "dtosc:outputs:EPD",
            "name": "none",
            "description": "",
            "latitude": 0.0,
            "longitude": 0.0,
            "bins": [
                0.0
            ],
            "pdf": [
                0.0
            ]
        },
        "mag_monthly": {
            "__type__": "dtosc:outputs:EPDMonthly",
            "name": "none",
            "description": "",
            "latitude": 0.0,
            "longitude": 0.0,
            "bins": [
                0.0
            ],
            "pdf": [
                [
                    0.0
                ]
            ]
        },
        "theta": {
            "__type__": "dtosc:outputs:EPD",
            "name": "none",
            "description": "",
            "latitude": 0.0,
            "longitude": 0.0,
            "bins": [
                0.0
            ],
            "pdf": [
                0.0
            ]
        },
        "theta_monthly": {
            "__type__": "dtosc:outputs:EPDMonthly",
            "name": "none",
            "description": "",
            "latitude": 0.0,
            "longitude": 0.0,
            "bins": [
                0.0
            ],
            "pdf": [
                [
                    0.0
                ]
            ]
        }
    },
    "EJPD": {
        "__type__": "dtosc:point:outputs:EJPDCurrents",
        "name": "none",
        "description": "",
        "mag_theta": {
            "__type__": "dtosc:outputs:EJPD",
            "name": "none",
            "description": "",
            "latitude": 0.0,
            "longitude": 0.0,
            "bins1": [
                0.0
            ],
            "bins2": [
                0.0
            ],
            "pdf": [
                [
                    0.0
                ]
            ]
        },
        "mag_theta_monthly": {
            "__type__": "dtosc:outputs:EJPDMonthly",
            "name": "none",
            "description": "",
            "latitude": 0.0,
            "longitude": 0.0,
            "bins1": [
                0.0
            ],
            "bins2": [
                0.0
            ],
            "pdf": [
                [
                    [
                        0.0
                    ]
                ]
            ]
        }
    },
    "EXT": {
        "__type__": "dtosc:point:outputs:EXTCurrents",
        "name": "none",
        "description": "",
        "mag": {
            "__type__": "dtosc:outputs:EXT",
            "name": "none",
            "description": "",
            "latitude": 0.0,
            "longitude": 0.0,
            "return_periods": [
                0.0
            ],
            "return_values": [
                0.0
            ]
        }
    }
}
