{
    "__type__": "dtosc:point:outputs:StatsWaves",
    "name": "none",
    "description": "",
    "Basic": {
        "__type__": "dtosc:point:outputs:BasicWaves",
        "name": "none",
        "description": "",
        "hs": {
            "__type__": "dtosc:outputs:BasicStats",
            "name": "none",
            "description": "",
            "latitude": 0.0,
            "longitude": 0.0,
            "mean": 0.0,
            "min": 0.0,
            "max": 0.0,
            "median": 0.0,
            "std": 0.0
        },
        "tp": {
            "__type__": "dtosc:outputs:BasicStats",
            "name": "none",
            "description": "",
            "latitude": 0.0,
            "longitude": 0.0,
            "mean": 0.0,
            "min": 0.0,
            "max": 0.0,
            "median": 0.0,
            "std": 0.0
        },
        "CgE": {
            "__type__": "dtosc:outputs:BasicStats",
            "name": "none",
            "description": "",
            "latitude": 0.0,
            "longitude": 0.0,
            "mean": 0.0,
            "min": 0.0,
            "max": 0.0,
            "median": 0.0,
            "std": 0.0
        },
        "gamma": {
            "__type__": "dtosc:outputs:BasicStats",
            "name": "none",
            "description": "",
            "latitude": 0.0,
            "longitude": 0.0,
            "mean": 0.0,
            "min": 0.0,
            "max": 0.0,
            "median": 0.0,
            "std": 0.0
        },
        "spr": {
            "__type__": "dtosc:outputs:BasicStats",
            "name": "none",
            "description": "",
            "latitude": 0.0,
            "longitude": 0.0,
            "mean": 0.0,
            "min": 0.0,
            "max": 0.0,
            "median": 0.0,
            "std": 0.0
        }
    },
    "EPD": {
        "__type__": "dtosc:point:outputs:EPDWaves",
        "name": "none",
        "description": "",
        "hs": {
            "__type__": "dtosc:outputs:EPD",
            "name": "none",
            "description": "",
            "latitude": 0.0,
            "longitude": 0.0,
            "bins": [
                0.0
            ],
            "pdf": [
                0.0
            ]
        },
        "hs_monthly": {
            "__type__": "dtosc:outputs:EPDMonthly",
            "name": "none",
            "description": "",
            "latitude": 0.0,
            "longitude": 0.0,
            "bins": [
                0.0
            ],
            "pdf": [
                [
                    0.0
                ]
            ]
        },
        "tp": {
            "__type__": "dtosc:outputs:EPD",
            "name": "none",
            "description": "",
            "latitude": 0.0,
            "longitude": 0.0,
            "bins": [
                0.0
            ],
            "pdf": [
                0.0
            ]
        },
        "tp_monthly": {
            "__type__": "dtosc:outputs:EPDMonthly",
            "name": "none",
            "description": "",
            "latitude": 0.0,
            "longitude": 0.0,
            "bins": [
                0.0
            ],
            "pdf": [
                [
                    0.0
                ]
            ]
        },
        "dp": {
            "__type__": "dtosc:outputs:EPD",
            "name": "none",
            "description": "",
            "latitude": 0.0,
            "longitude": 0.0,
            "bins": [
                0.0
            ],
            "pdf": [
                0.0
            ]
        },
        "dp_monthly": {
            "__type__": "dtosc:outputs:EPDMonthly",
            "name": "none",
            "description": "",
            "latitude": 0.0,
            "longitude": 0.0,
            "bins": [
                0.0
            ],
            "pdf": [
                [
                    0.0
                ]
            ]
        }
    },
    "EJPD": {
        "__type__": "dtosc:point:outputs:EJPDWaves",
        "name": "none",
        "description": "",
        "hs_tp": {
            "__type__": "dtosc:outputs:EJPD",
            "name": "none",
            "description": "",
            "latitude": 0.0,
            "longitude": 0.0,
            "bins1": [
                0.0
            ],
            "bins2": [
                0.0
            ],
            "pdf": [
                [
                    0.0
                ]
            ]
        },
        "hs_tp_monthly": {
            "__type__": "dtosc:outputs:EJPDMonthly",
            "name": "none",
            "description": "",
            "latitude": 0.0,
            "longitude": 0.0,
            "bins1": [
                0.0
            ],
            "bins2": [
                0.0
            ],
            "pdf": [
                [
                    [
                        0.0
                    ]
                ]
            ]
        },
        "hs_dp": {
            "__type__": "dtosc:outputs:EJPD",
            "name": "none",
            "description": "",
            "latitude": 0.0,
            "longitude": 0.0,
            "bins1": [
                0.0
            ],
            "bins2": [
                0.0
            ],
            "pdf": [
                [
                    0.0
                ]
            ]
        },
        "hs_dp_monthly": {
            "__type__": "dtosc:outputs:EJPDMonthly",
            "name": "none",
            "description": "",
            "latitude": 0.0,
            "longitude": 0.0,
            "bins1": [
                0.0
            ],
            "bins2": [
                0.0
            ],
            "pdf": [
                [
                    [
                        0.0
                    ]
                ]
            ]
        }
    },
    "ENVS": {
        "__type__": "dtosc:point:outputs:ENVSWaves",
        "name": "none",
        "description": "",
        "latitude": 0.0,
        "longitude": 0.0,
        "hs_dp_proba": [
            0.0
        ],
        "intervals_hs_min": [
            0.0
        ],
        "intervals_hs_max": [
            0.0
        ],
        "intervals_dp_min": [
            0.0
        ],
        "intervals_dp_max": [
            0.0
        ],
        "associated_tp": [
            0.0
        ],
        "associated_cur": [
            0.0
        ],
        "associated_dircur": [
            0.0
        ],
        "associated_wind": [
            0.0
        ],
        "associated_dirwind": [
            0.0
        ]
    },
    "EJPD3v": {
        "__type__": "dtosc:point:outputs:EJPD3vWaves",
        "name": "none",
        "description": "",
        "hs_tp_dp": {
            "__type__": "dtosc:outputs:EJPD3v",
            "name": "none",
            "description": "",
            "latitude": 0.0,
            "longitude": 0.0,
            "bins1": [
                0.0
            ],
            "bins2": [
                0.0
            ],
            "bins3": [
                0.0
            ],
            "pdf": [
                [
                    [
                        0.0
                    ]
                ]
            ]
        },
        "hs_tp_dp_monthly": {
            "__type__": "dtosc:outputs:EJPD3vMonthly",
            "name": "none",
            "description": "",
            "latitude": 0.0,
            "longitude": 0.0,
            "bins1": [
                0.0
            ],
            "bins2": [
                0.0
            ],
            "bins3": [
                0.0
            ],
            "pdf": [
                [
                    [
                        [
                            0.0
                        ]
                    ]
                ]
            ]
        },
        "hs_tp_dp_flattened": {
            "__type__": "dtosc:outputs:EJPD3v_flattened",
            "name": "none",
            "description": "",
            "latitude": 0.0,
            "longitude": 0.0,
            "bins1": [],
            "bins2": [],
            "bins3": [],
            "id": [
                0
            ],
            "pdf": [
                0.0
            ]
        },
        "hs_tp_dp_monthly_flattened": {
            "__type__": "dtosc:outputs:EJPD3vMonthly_flattened",
            "name": "none",
            "description": "",
            "latitude": 0.0,
            "longitude": 0.0,
            "bins1": [],
            "bins2": [],
            "bins3": [],
            "id": [
                [
                    0
                ]
            ],
            "pdf": [
                [
                    0.0
                ]
            ]
        }
    },
    "EXT": {
        "__type__": "dtosc:point:outputs:EXTWaves",
        "name": "none",
        "description": "",
        "hs": {
            "__type__": "dtosc:outputs:EXT",
            "name": "none",
            "description": "",
            "latitude": 0.0,
            "longitude": 0.0,
            "return_periods": [
                0.0
            ],
            "return_values": [
                0.0
            ]
        },
        "tp": {
            "__type__": "dtosc:outputs:EXT",
            "name": "none",
            "description": "",
            "latitude": 0.0,
            "longitude": 0.0,
            "return_periods": [
                0.0
            ],
            "return_values": [
                0.0
            ]
        },
        "gamma": {
            "__type__": "dtosc:outputs:EXT",
            "name": "none",
            "description": "",
            "latitude": 0.0,
            "longitude": 0.0,
            "return_periods": [
                0.0
            ],
            "return_values": [
                0.0
            ]
        }
    },
    "EXC": {
        "__type__": "dtosc:point:outputs:EXCWaves",
        "name": "none",
        "description": "",
        "hs_tp": {
            "__type__": "dtosc:outputs:EXC",
            "name": "none",
            "description": "",
            "latitude": 0.0,
            "longitude": 0.0,
            "return_periods": [
                0.0
            ],
            "return_values1": [
                [
                    0.0
                ]
            ],
            "return_values2": [
                [
                    0.0
                ]
            ]
        }
    }
}
