{
    "__type__": "dtosc:outputs:EPD",
    "name": "none",
    "description": "",
    "latitude": 0.0,
    "longitude": 0.0,
    "bins": [
        0.0
    ],
    "pdf": [
        0.0
    ]
}
