{
    "__type__": "dtosc:outputs:RoughnessLength",
    "name": "none",
    "description": "",
    "latitude": [
        0.0
    ],
    "longitude": [
        0.0
    ],
    "value": [
        0.0
    ],
    "unit": "mm"
}
