{
    "capture_width_ratio": [[[0.3]]],
    "tp_capture_width": [5],
    "hs_capture_width": [2],
    "wave_angle_capture_width": [0],
    "pto_damping": [[[[[1e6]]]]],
    "mooring_stiffness": [[[[[2e6]]]]],
    "additional_damping": [[[[[3e6]]]]],
    "additional_stiffness": [[[[[4e6]]]]],
    "wave_spectra": {
        "spectrum_type": "JONSWAP",
        "peak_enhancement_factor": 3.3,
        "angular_spreading_factor": 3
    },
    "heading_angle_span": 30,
    "water_depth": 50,
    "shared_dof": [0,0,1,0,0,0],
    "point_application": [0,0,0.0],
    "wave_frequency": [0.1],
    "wave_direction": [0],
    "dofs": ["Heave"],
    "get_array_mat": true,
    "cyl_theta": 11,
    "cyl_zeta": 15,
    "ndof": 1,
    "pto_dof": 1,
    "mooring_dof": 1,
    "bodies": [
        {
            "ID": [0],
            "axis_angles": [0,0,0],
            "child_dof_position": [],
            "cog": [0,0,0],
            "dof_with_parent": [],
            "extended_dof": 0,
            "MoI": [[1,0,0],[0,1,0],[0,0,1]],
            "mass": 1e6,
            "mesh": "./test/business/data/Cylinder.dat",
            "mesh_format": "dat",
            "number_panel": 500,
            "number_vertex": 2000,
            "number_child": 0,
            "parent_body": [-1]
        }
    ]
}
