{
"power_transmission":[
  {
      "id": "1_1",
      "properties": {
          "array_cable_total_length": {
              "description": "Total length of the array cables used in the design",
              "value": 0.75,
              "unit": "m",
              "origin": "ED"
            },
          "export_cable_total_length": {
              "description": "Total length of the export cables used in the design",
              "value": 0.75,
              "unit": "m",
              "origin": "ED"
            },
          "umbilical_cable_total_length": {
              "description": "Total length of the umbilical cables used in the design",
              "value": 0.75,
              "unit": "m",
              "origin": "ED"
            },
          "configuration": {
              "description": "Network configuration - radial, star etc.",
              "value": "radial",
              "origin": "ED"
            },
          "export_voltage": {
              "description": "Export cable voltage",
              "value": 0.75,
              "unit": "V",
              "origin": "ED"
            },
          "array_voltage": {
              "description": "Array network voltage",
              "value": 0.75,
              "unit": "V",
              "origin": "ED"
            },
          "device_voltage": {
              "description": "Device voltage",
              "value": 0.75,
              "unit": "V",
              "origin": "ED"
            },
          "b_o_m": {
              "name": {
                  "Tot_Array": "Total array network",
                  "Tot_Collection_Point": "Total collection point",
                  "Tot_Onshore": "Total onshore infrastructure",
                  "Tot_Transmission": "Total transmission network"
                },
              "qnt": {
                  "Tot_Array": "NA",
                  "Tot_Collection_Point": "NA",
                  "Tot_Onshore": "NA",
                  "Tot_Transmission": "NA"
                },
              "uom": {
                  "Tot_Array": "NA",
                  "Tot_Collection_Point": "NA",
                  "Tot_Onshore": "NA",
                  "Tot_Transmission": "NA"
                },
              "unit_cost": {
                  "Tot_Array": "NA",
                  "Tot_Collection_Point": "NA",
                  "Tot_Onshore": "NA",
                  "Tot_Transmission": "NA"
                },
              "total_cost": {
                  "Tot_Array": 1108189,
                  "Tot_Collection_Point": 100000,
                  "Tot_Onshore": 0,
                  "Tot_Transmission": 706000
                }
            },
            "hierarchy": {
              "system": [
                "ED",
                "ED",
                "ED",
                "ED",
                "ED",
                "ED",
                "ED",
                "ED",
                "ED",
                "ED",
                "ED",
                "ED",
                "ED",
                "ED",
                "ED",
                "ED",
                "ED",
                "ED"
              ],
              "name_of_node": [
                "ED Subsystem",
                "ED1",
                "ED2",
                "Route1_1",
                "Route2_1",
                "11",
                "6",
                "2",
                "9",
                "4",
                "0",
                "1",
                "12",
                "10",
                "8",
                "7",
                "5",
                "3"
              ],
              "design_id": [
                "NA",
                "NA",
                "NA",
                "NA",
                "NA",
                "11",
                "6",
                "2",
                "9",
                "4",
                "0",
                "1",
                "12",
                "10",
                "8",
                "7",
                "5",
                "3"
              ],
              "node_type": [
                "System",
                "System",
                "System",
                "Energy route",
                "Energy route",
                "Component",
                "Component",
                "Component",
                "Component",
                "Component",
                "Component",
                "Component",
                "Component",
                "Component",
                "Component",
                "Component",
                "Component",
                "Component"
              ],
              "node_subtype": [
                "NA",
                "NA",
                "NA",
                "NA",
                "NA",
                " umbilical",
                " umbilical",
                " passive hub",
                " array",
                " array",
                " export",
                " dry-mate",
                " wet-mate",
                " wet-mate",
                " wet-mate",
                " wet-mate",
                " wet-mate",
                " wet-mate"
              ],
              "category": [
                "Level 3",
                "Level 2",
                "Level 2",
                "Level 1",
                "Level 1",
                "Level 0",
                "Level 0",
                "Level 0",
                "Level 0",
                "Level 0",
                "Level 0",
                "Level 0",
                "Level 0",
                "Level 0",
                "Level 0",
                "Level 0",
                "Level 0",
                "Level 0"
              ],
              "parent": [
                "NA",
                "NA",
                "NA",
                [
                  "ED1"
                ],
                [
                  "ED2"
                ],
                [
                  "Route2_1"
                ],
                [
                  "Route1_1",
                  "Route2_1"
                ],
                [
                  "Route1_1",
                  "Route2_1"
                ],
                [
                  "Route2_1"
                ],
                [
                  "Route1_1",
                  "Route2_1"
                ],
                [
                  "Route1_1",
                  "Route2_1"
                ],
                [
                  "Route1_1",
                  "Route2_1"
                ],
                [
                  "Route2_1"
                ],
                [
                  "Route2_1"
                ],
                [
                  "Route2_1"
                ],
                [
                  "Route1_1",
                  "Route2_1"
                ],
                [
                  "Route1_1",
                  "Route2_1"
                ],
                [
                  "Route1_1",
                  "Route2_1"
                ]
              ],
              "child": [
                [
                  "ED1",
                  "ED2"
                ],
                [
                  "Route1_1"
                ],
                [
                  "Route2_1"
                ],
                [
                  "7",
                  "6",
                  "5",
                  "4",
                  "3",
                  "2",
                  "1",
                  "0"
                ],
                [
                  "12",
                  "11",
                  "10",
                  "9",
                  "8",
                  "7",
                  "6",
                  "5",
                  "4",
                  "3",
                  "2",
                  "1",
                  "0"
                ],
                "NA",
                "NA",
                "NA",
                "NA",
                "NA",
                "NA",
                "NA",
                "NA",
                "NA",
                "NA",
                "NA",
                "NA",
                "NA"
              ],
              "gate_type": [
                "OR",
                "OR",
                "OR",
                "AND",
                "AND",
                "NA",
                "NA",
                "NA",
                "NA",
                "NA",
                "NA",
                "NA",
                "NA",
                "NA",
                "NA",
                "NA",
                "NA",
                "NA"
              ],
              "failure_rate_repair": [
                "NA",
                "NA",
                "NA",
                "NA",
                "NA",
                0.4200829426137176,
                0.4200829426137176,
                2.457042,
                6.12162726832119,
                1.026,
                19.10002255509104,
                5.42244,
                5.42244,
                5.42244,
                5.42244,
                5.42244,
                5.42244,
                5.42244
              ],
              "failure_rate_replacement": [
                "NA",
                "NA",
                "NA",
                "NA",
                "NA",
                0.4200829426137176,
                0.4200829426137176,
                2.457042,
                6.12162726832119,
                1.026,
                19.10002255509104,
                5.42244,
                5.42244,
                5.42244,
                5.42244,
                5.42244,
                5.42244,
                5.42244
              ]
            }
        },
      "assessment": {
          "annual_yield": {
              "description": "Array energy output over a year at the Grid Connection Point (GCP)",
              "value": 0.75,
              "unit": "kWh",
              "origin": "ED"
            },
          "annual_efficiency": {
              "description": "Network efficiency over a year",
              "value": 95,
              "unit": "%",
              "origin": "ED"
            },
          "total_cost": {
              "description": "Total cost of all components in the network",
              "value": 100,
              "unit": "Euro",
              "origin": "ED"
            }
        },
      "hierarchical": {
          "part_of_array": {
              "description": "Parent Array id",
              "value": "1",
              "origin": "ED"
          },
          "transmission_to_shore": {
              "description": "Children Transmission to Shore id",
              "value": [
                "1_1_1"
              ],
              "origin": "ED"
          },
          "array_network": {
              "description": "Children Array Network id",
              "value": [
                "1_1_1"
              ],
              "origin": "ED"
          },
          "collection_point": {
              "description": "Children Collection Point ids",
              "value": [
                "1_1_1",
                "1_1_1"
              ],
              "origin": "ED"
          }
        }
  }
],
"transmission_onshore_landing_point":[
  {
      "id": "1_1_1_1",
      "location": {
        "description": "Onshore landing point coordinates",
        "value": [0, 0, 0],
        "unit": "m",
        "origin": "ED"
      },
      "assessment": {
        "annual_yield": {
          "description": "Array energy output over a year at the Grid Connection Point (GCP)",
          "value": 0.75,
          "unit": "kWh",
          "origin": "ED"
        }
      },
      "hierarchical": {
          "part_of_transmission_to_shore": {
              "description": "Parent Transmission to Shore id",
              "value": "1_1_1",
              "origin": "ED"
            }
        }
  }
],
"transmission_to_shore": [
  {
    "id": "1_1_1",
    "properties": {
      "export_cable_total_length": {
        "description": "Total length of the export cables used in the transmission to shore system",
        "value": 0.75,
        "unit": "m",
        "origin": "ED"
      },
      "export_cable_catalogue_ref": {
        "description": "Export cable catalogue reference",
        "value": [101],
        "unit": "",
        "origin": "ED"
      },
      "umbilical_cable_total_length": {
        "description": "Total length of the umbilical cables used in the transmission to shore system",
        "value": 0.75,
        "unit": "m",
        "origin": "ED"
      },
      "umbilical_cable_catalogue_ref": {
        "description": "Umbilical cable catalogue reference",
        "value": [101],
        "unit": "",
        "origin": "ED"
      },
      "number_dry_mate_connectors": {
        "description": "Number of dry-mate connectors used in the transmission to shore system",
        "value": 3,
        "unit": "",
        "origin": "ED"
      },
      "dry_mate_connectors_catalogue_ref": {
        "description": "Dry-mate connector catalogue reference",
        "value": [101,102],
        "unit": "",
        "origin": "ED"
      },
      "number_wet_mate_connectors": {
        "description": "Number of wet-mate connectors used in the transmission to shore system",
        "value": 3,
        "unit": "",
        "origin": "ED"
      },
      "wet_mate_connectors_catalogue_ref": {
        "description": "Wet-mate connector catalogue reference",
        "value": [101,102],
        "unit": "",
        "origin": "ED"
      },
      "intermediate_nodes_list": {
        "description": "ED design IDs attached to the transmission to shore system",
        "value": [
          0,
          1,
          2
        ],
        "unit": "",
        "origin": "ED"
      },
      "export_voltage": {
        "description": "Export voltage",
        "value": 101,
        "unit": "V",
        "origin": "ED"
      }
    },
    "assessment": {
      "total_cost": {
        "description": "Total cost of all components in the transmission to shore system",
        "value": 100,
        "unit": "Euro",
        "origin": "ED"
      }
    },
    "hierarchical": {
      "part_of_power_transmission": {
        "description": "Parent Power Transmission id",
        "value": "1_1",
        "origin": "ED"
      },
      "static_cables": {
        "description": "Children static cables id",
        "value": [
          "1_1_1_1"
        ],
        "origin": "ED"
      },
      "dynamic_cables": {
        "description": "Children dynamic cables id",
        "value": [
          "1_1_1_1"
        ],
        "origin": "ED"
      },
      "connectors": {
        "description": "Children connectors id",
        "value": [
          "1_1_1_1",
          "1_1_1_1"
        ],
        "origin": "ED"
      },
      "onshore_landing_point": {
        "description": "Children Onshore Landing Point ids",
        "value": [
          "1_1_1_1"
        ],
        "origin": "ED"
      }
    }
  }
],
"array_network": [
  {
    "id": "1_1_1",
    "properties": {
      "array_cable_total_length": {
        "description": "Total length of the array cables used in the array network",
        "value": 0.75,
        "unit": "m",
        "origin": "ED"
      },
      "array_cable_catalogue_ref": {
        "description": "Array cable catalogue reference",
        "value": [101,102],
        "unit": "",
        "origin": "ED"
      },
      "device_cable_total_length": {
        "description": "Total length of the device cables used in the array network (only for star networks)",
        "value": 0.75,
        "unit": "m",
        "origin": "ED"
      },
      "device_cable_catalogue_ref": {
        "description": "Device cable catalogue reference (only for star networks)",
        "value": 101,
        "unit": "",
        "origin": "ED"
      },
      "umbilical_cable_total_length": {
        "description": "Total length of the umbilical cables used in the array network",
        "value": 0.75,
        "unit": "m",
        "origin": "ED"
      },
      "umbilical_cable_catalogue_ref": {
        "description": "Umbilical cable catalogue reference",
        "value": [101],
        "unit": "",
        "origin": "ED"
      },
      "number_dry_mate_connectors": {
        "description": "Number of dry-mate connectors used in the array network",
        "value": 3,
        "unit": "",
        "origin": "ED"
      },
      "dry_mate_connectors_catalogue_ref": {
        "description": "Dry-mate connector catalogue reference",
        "value": [101,102],
        "unit": "",
        "origin": "ED"
      },
      "number_wet_mate_connectors": {
        "description": "Number of wet-mate connectors used in the array network",
        "value": 3,
        "unit": "",
        "origin": "ED"
      },
      "wet_mate_connectors_catalogue_ref": {
        "description": "Wet-mate connector catalogue reference",
        "value": [101,102],
        "unit": "",
        "origin": "ED"
      },
      "intermediate_nodes_list": {
        "description": "ED design IDs attached to the array network",
        "value": [
          0,
          1,
          2
        ],
        "unit": "",
        "origin": "ED"
      },
      "array_voltage": {
        "description": "Array network voltage",
        "value": 101,
        "unit": "V",
        "origin": "ED"
      },
      "device_voltage": {
        "description": "Device voltage",
        "value": 101,
        "unit": "V",
        "origin": "ED"
      }
    },
    "assessment": {
      "total_cost": {
        "description": "Total cost of all components in the array network",
        "value": 100,
        "unit": "Euro",
        "origin": "ED"
      }
    },
    "hierarchical": {
      "part_of_power_transmission": {
        "description": "Parent Power Transmission id",
        "value": "1_1",
        "origin": "ED"
      },
      "static_cables": {
        "description": "Children static cables id",
        "value": [
          "1_1_1_1"
        ],
        "origin": "ED"
      },
      "dynamic_cables": {
        "description": "Children dynamic cables id",
        "value": [
          "1_1_1_1"
        ],
        "origin": "ED"
      },
      "connectors": {
        "description": "Children connectors id",
        "value": [
          "1_1_1_1",
          "1_1_1_1"
        ],
        "origin": "ED"
      }
    }
  }
],
"collection_point": [
  {
    "id": "1_1_1_1",
    "location": {
      "description": "Collection point coordinates",
      "value": [
        0,
        0,
        0
      ],
      "unit": "m",
      "origin": "ED"
    },
    "properties": {
      "type_": {
        "description": "Type of collection point",
        "value": "substation",
        "origin": "ED"
      },
      "catalogue_reference": {
        "description": "Collection point catalogue reference",
        "value": 101,
        "unit": "",
        "origin": "ED"
      },
      "type_input_connections": {
        "description": "Type of input connections on collection point",
        "value": "wet-mate",
        "origin": "ED"
      },
      "type_output_connections": {
        "description": "Type of output connections on collection point",
        "value": "dry-mate",
        "origin": "ED"
      },
      "v1": {
        "description": "Collection point input voltage",
        "value": 101,
        "unit": "V",
        "origin": "ED"
      },
      "v2": {
        "description": "Collection point output voltage",
        "value": 101,
        "unit": "V",
        "origin": "ED"
      },
      "mass": {
        "description": "Collection point topside mass (for substations) or mass (for passive hub)",
        "value": 101,
        "unit": "kg",
        "origin": "ED"
      },
      "height": {
        "description": "Collection point topside height (for substations) or height (for passive hub)",
        "value": 101,
        "unit": "m",
        "origin": "ED"
      },
      "width": {
        "description": "Collection point topside width (for substations) or width (for passive hub)",
        "value": 101,
        "unit": "m",
        "origin": "ED"
      },
      "length": {
        "description": "Collection point topside length (for substations) or length (for passive hub)",
        "value": 101,
        "unit": "m",
        "origin": "ED"
      },
      "CP_height_seabed": {
        "description": "Collection point topside platform height from seabed. Zero for passive hub.",
        "value": 101,
        "unit": "m",
        "origin": "ED"
      },
      "materials" : {
        "description": "Collection point topside materials (for substations) or materials (for passive hub)",
        "value": [{
          "material_name": "steel",
          "material_quantity": 101.1
        }],
        "unit": "kg",
        "origin": "ED"
      }
    },
    "assessment": {
      "failure_rate_repair": {
        "description": "Failure rate repair for collection point",
        "value": 0.75,
        "unit": "faults/year",
        "origin": "ED"
      },
      "failure_rate_replacement": {
        "description": "Failure rate replacement for collection point",
        "value": 0.75,
        "unit": "faults/year",
        "origin": "ED"
      },
      "total_cost": {
        "description": "Cost of collection point",
        "value": 0.75,
        "unit": "Euro",
        "origin": "ED"
      }
    },
    "hierarchical": {
      "part_of_power_transmission": {
        "description": "Parent Power Transmission id",
        "value": "1_1",
        "origin": "ED"
      },
      "transformer": {
        "description": "Child collection point transformer id",
        "value": "1_1_1_1_1",
        "origin": "ED"
      },
      "structure": {
        "description": "Child collection point structure id",
        "value": "1_1_1_1_1",
        "origin": "ED"
      }
    }
  }
],
"collection_point_transformer": [
  {
    "id": "1_1_1_1_1",
    "properties": {
      "catalogue_reference": {
        "description": "Collection point transformer catalogue reference",
        "value": 101,
        "unit": "",
        "origin": "ED"
      },
      "v1": {
        "description": "Collection point transformer input voltage",
        "value": 101,
        "unit": "V",
        "origin": "ED"
      },
      "v2": {
        "description": "Collection point transformer output voltage",
        "value": 101,
        "unit": "V",
        "origin": "ED"
      },
      "mass": {
        "description": "Collection point transformer mass",
        "value": 101,
        "unit": "kg",
        "origin": "ED"
      },
      "height": {
        "description": "Collection point transformer height",
        "value": 101,
        "unit": "m",
        "origin": "ED"
      },
      "width": {
        "description": "Collection point transformer width",
        "value": 101,
        "unit": "m",
        "origin": "ED"
      },
      "length": {
        "description": "Collection point transformer length",
        "value": 101,
        "unit": "m",
        "origin": "ED"
      },
      "materials" : {
        "description": "Collection point transformer materials",
        "value": [{
          "material_name": "steel",
          "material_quantity": 101.1
        }],
        "unit": "kg",
        "origin": "ED"
      }
    },
    "assessment": {
      "failure_rate_repair": {
        "description": "Failure rate repair for collection point transformer",
        "value": 0.75,
        "unit": "faults/year",
        "origin": "ED"
      },
      "failure_rate_replacement": {
        "description": "Failure rate replacement for collection point transformer",
        "value": 0.75,
        "unit": "faults/year",
        "origin": "ED"
      }
    },
    "hierarchical": {
      "part_of_collection_point": {
        "description": "Parent Collection Point id",
        "value": "1_1_1_1",
        "origin": "ED"
      }
    }
  }
],
"collection_point_structure": [
  {
    "id": "1_1_1_1_1",
    "properties": {
      "type_": {
        "description": "Collection point structure type",
        "value": "Monopile",
        "origin": "ED"
      },
      "topside_mass": {
        "description": "Collection point topside mass",
        "value": 101,
        "unit": "kg",
        "origin": "ED"
      },
      "topside_height": {
        "description": "Collection point topside height",
        "value": 101,
        "unit": "m",
        "origin": "ED"
      },
      "topside_width": {
        "description": "Collection point topside width",
        "value": 101,
        "unit": "m",
        "origin": "ED"
      },
      "topside_length": {
        "description": "Collection point topside length",
        "value": 101,
        "unit": "m",
        "origin": "ED"
      },
      "topside_height_seabed": {
        "description": "Collection point topside platform height from seabed",
        "value": 101,
        "unit": "m",
        "origin": "ED"
      },
      "topside_materials" : {
        "description": "Collection point topside materials",
        "value": [{
          "material_name": "steel",
          "material_quantity": 101.1
        }],
        "unit": "kg",
        "origin": "ED"
      }
    },
    "hierarchical": {
      "part_of_collection_point": {
        "description": "Child of Collection Point id",
        "value": "1_1_1_1",
        "origin": "ED"
      }
    }
  }
],
"static_cables": [
  {
    "id": "1_1_1_1",
    "location": {
      "start_point": {
        "description": "Static cable start point coordinates",
        "value": [
          0,
          0
        ],
        "unit": "m",
        "origin": "ED"
      },
      "end_point": {
        "description": "Static cable end point coordinates",
        "value": [
          0,
          0
        ],
        "unit": "m",
        "origin": "ED"
      }
    },
    "properties": {
      "segment_length": {
        "description": "Length of the static cable",
        "value": 0.75,
        "unit": "m",
        "origin": "ED"
      },
      "route_coordinates": {
        "description": "Route coordinates in x (value1) and y (value2) direction for static cable",
        "value1": [
          0,
          10
        ],
        "value2": [
          30,
          40
        ],
        "unit": "m",
        "origin": "ED"
      },
      "installation_method": {
        "description": "Installation method used for static cable",
        "value": "Jetting",
        "origin": "ED"
      },
      "burial_depth": {
        "description": "Burial depth of static cable",
        "value": 0.1,
        "unit": "m",
        "origin": "ED"
      },
      "protection_method": {
        "description": "Protection method for static cable",
        "value": "split pipe",
        "origin": "ED"
      },
      "catalogue_reference": {
        "description": "Static cable catalogue reference",
        "value": 101,
        "unit": "",
        "origin": "ED"
      },
      "voltage_rating": {
        "description": "Static cable voltage rating",
        "value": 101,
        "unit": "V",
        "origin": "ED"
      },
      "current_rating": {
        "description": "Static cable current rating",
        "value": 101,
        "unit": "A",
        "origin": "ED"
      },
      "mass": {
        "description": "Static cable dry mass",
        "value": 101,
        "unit": "kg",
        "origin": "ED"
      },
      "mbr": {
        "description": "Static cable minimum bending radius",
        "value": 101,
        "unit": "m",
        "origin": "ED"
      },
      "diameter": {
        "description": "Static cable diameter",
        "value": 101,
        "unit": "mm",
        "origin": "ED"
      },
      "materials" : {
        "description": "Static cable materials",
        "value": [{
          "material_name": "steel",
          "material_quantity": 101.1
        }],
        "unit": "kg",
        "origin": "ED"
      },
      "seabed_depth": {
        "description": "Static cable seabed depth along route",
        "value": [50,50,50],
        "unit": "m",
        "origin": "ED"
      },
      "seabed_type": {
        "description": "Static cable seabed type along route",
        "value": ["loose sand","loose sand","loose sand"],
        "unit": "",
        "origin": "ED"
      }
    },
    "assessment": {
      "failure_rate_repair": {
        "description": "Failure rate repair for static cable",
        "value": 0.75,
        "unit": "faults/year",
        "origin": "ED"
      },
      "failure_rate_replacement": {
        "description": "Failure rate replacement for static cable",
        "value": 0.75,
        "unit": "faults/year",
        "origin": "ED"
      },
      "total_cost": {
        "description": "Cost of static cable",
        "value": 0.75,
        "unit": "Euro",
        "origin": "ED"
      }
    },
    "hierarchical": {
      "part_of_transmission_to_shore": {
        "description": "Parent Transmission to Shore id",
        "value": "1_1_1",
        "origin": "ED"
      },
      "part_of_array_network": {
        "description": "Parent Array Network id",
        "value": "1_1_1",
        "origin": "ED"
      },
      "start_connected_to_node": {
        "description": "ED Design ID of start node",
        "value": "12",
        "origin": "ED"
      },
      "end_connected_to_node": {
        "description": "ED Design ID of start node",
        "value": "6",
        "origin": "ED"
      }
    }
  }
],
"dynamic_cables": [
  {
    "id": "1_1_1_1",
    "location": {
      "start_point": {
        "description": "Dynamic cable start point coordinates",
        "value": [
          0,
          0,
          0
        ],
        "unit": "m",
        "origin": "ED"
      },
      "end_point": {
        "description": "Dynamic cable end point coordinates",
        "value": [
          0,
          0,
          0
        ],
        "unit": "m",
        "origin": "ED"
      }
    },
    "properties": {
      "segment_length": {
        "description": "Length of the dynamic cable",
        "value": 0.75,
        "unit": "m",
        "origin": "ED"
      },
      "route_coordinates": {
        "description": "Route coordinates in x (value1) and z (value2) direction for dynamic cable - in local coordinates with respect to device location",
        "value1": [
          0,
          10,
          20
        ],
        "value2": [
          30,
          40,
          50
        ],
        "unit": "m",
        "origin": "ED"
      },
      "catalogue_reference": {
        "description": "Dynamic cable catalogue reference",
        "value": 101,
        "unit": "",
        "origin": "ED"
      },
      "voltage_rating": {
        "description": "Dynamic cable voltage rating",
        "value": 101,
        "unit": "V",
        "origin": "ED"
      },
      "current_rating": {
        "description": "Dynamic cable current rating",
        "value": 101,
        "unit": "A",
        "origin": "ED"
      },
      "mass": {
        "description": "Dynamic cable dry mass",
        "value": 101,
        "unit": "kg",
        "origin": "ED"
      },
      "mbr": {
        "description": "Dynamic cable minimum bending radius",
        "value": 101,
        "unit": "m",
        "origin": "ED"
      },
      "diameter": {
        "description": "Dynamic cable diameter",
        "value": 101,
        "unit": "mm",
        "origin": "ED"
      },
      "max_device_offset": {
        "description": "Dynamic cable maximum device offset",
        "value": 101,
        "unit": "m",
        "origin": "ED"
      },
      "materials" : {
        "description": "Dynamic cable materials",
        "value": [{
          "material_name": "steel",
          "material_quantity": 101.1
        }],
        "unit": "kg",
        "origin": "ED"
      }
    },
    "assessment": {
      "failure_rate_repair": {
        "description": "Failure rate repair for dynamic cable",
        "value": 0.75,
        "unit": "faults/year",
        "origin": "ED"
      },
      "failure_rate_replacement": {
        "description": "Failure rate replacement for dynamic cable",
        "value": 0.75,
        "unit": "faults/year",
        "origin": "ED"
      },
      "total_cost": {
        "description": "Cost of dynamic cable",
        "value": 0.75,
        "unit": "Euro",
        "origin": "ED"
      }
    },
    "hierarchical": {
      "part_of_transmission_to_shore": {
        "description": "Parent Transmission to Shore id",
        "value": "1_1_1",
        "origin": "ED"
      },
      "part_of_array_network": {
        "description": "Parent Array Network id",
        "value": "1_1_1",
        "origin": "ED"
      },
      "start_connected_to_node": {
        "description": "ED Design ID of start node",
        "value": "12",
        "origin": "ED"
      },
      "end_connected_to_node": {
        "description": "ED Design ID of start node",
        "value": "6",
        "origin": "ED"
      }
    }
  }
],
"connectors": [
  {
    "id": "1_1_1_1",
    "location": {
      "description": "Connector coordinates",
      "value": [
        0,
        0
      ],
      "unit": "m",
      "origin": "ED"
    },
    "properties": {
      "type_": {
        "description": "Type of connector",
        "value": "wet-mate",
        "origin": "ED"
      },
      "catalogue_reference": {
        "description": "Connector catalogue reference",
        "value": 101,
        "unit": "",
        "origin": "ED"
      },
      "mass": {
        "description": "Connector dry mass",
        "value": 101,
        "unit": "kg",
        "origin": "ED"
      },
      "height": {
        "description": "Connector height",
        "value": 101,
        "unit": "m",
        "origin": "ED"
      },
      "width": {
        "description": "Connector width",
        "value": 101,
        "unit": "m",
        "origin": "ED"
      },
      "depth": {
        "description": "Connector depth",
        "value": 101,
        "unit": "m",
        "origin": "ED"
      },
      "materials" : {
        "description": "Connector materials",
        "value": [{
          "material_name": "steel",
          "material_quantity": 101.1
        }],
        "unit": "kg",
        "origin": "ED"
      }
    },
    "assessment": {
      "failure_rate_repair": {
        "description": "Failure rate repair for connector",
        "value": 0.75,
        "unit": "faults/year",
        "origin": "ED"
      },
      "failure_rate_replacement": {
        "description": "Failure rate replacement for connector",
        "value": 0.75,
        "unit": "faults/year",
        "origin": "ED"
      },
      "total_cost": {
        "description": "Cost of connector",
        "value": 0.75,
        "unit": "Euro",
        "origin": "ED"
      }
    },
    "hierarchical": {
      "part_of_transmission_to_shore": {
        "description": "Parent Transmission to Shore id",
        "value": "1_1_1",
        "origin": "ED"
      },
      "part_of_array_network": {
        "description": "Parent Array Network id",
        "value": "1_1_1",
        "origin": "ED"
      },
      "connected_to_node": {
        "description": "ED Design ID of equipment connected to",
        "value": "12",
        "origin": "ED"
      }
    }
  }
]
}
