{
  "capex_table": {
    "id": [
      "Tot_Device",
      "Tot_ET",
      "Tot_onshoreinf",
      "Tot_transm",
      "Tot_network",
      "Tot_colpoint",
      "Tot_SK",
      "Tot_Inst_Dev",
      "Tot_Inst_Anc",
      "Tot_Inst_Moor",
      "Tot_Inst_Cable",
      "Tot_Inst_Col",
      "Tot_Other",
    ],
    "cost": [
      2000000.0,
      3800000.0,
      12900000.0,
      6900000.0,
      2000000.0,
      7300000.0,
      3000000.0,
      100000.0,
      1000000.0,
      10000000.0,
      2500000.0,
      1000000.0],
    "project_year": [0, 0, 0, 0, 0, 0, 0, 0, 0, 0, 0, 0],
    "cost_label": [
      "capex",
      "capex",
      "capex",
      "capex",
      "capex",
      "capex",
      "capex",
      "capex",
      "capex",
      "capex",
      "capex",
      "capex",
      "capex"
    ],
    "category": [
      "Device",
      "Device",
      "Grid",
      "Grid",
      "Grid",
      "Grid",
      "Moor_Found",
      "Installation",
      "Installation",
      "Installation",
      "Installation",
      "Installation",
      "Other"
    ]
  }
}
