{
     "hierarchy_new": {
        "system": ["ED", "ED", "ED", "ED", "ED", "ED", "ED", "ED", "ED", "ED", "ED", "ED", "ED", "ED", "ED", "ED", "ED", "ED"],
        "name_of_node": ["ED Subsystem", "ED1", "ED2", "Route1_1", "Route2_1", "11", "6", "2", "9", "4", "0", "1", "12", "10", "8", "7", "5", "3"],
        "design_id": ["NA", "NA", "NA", "NA", "NA", "11", "6", "2", "9", "4", "0", "1", "12", "10", "8", "7", "5", "3"],
        "node_type": ["System", "System", "System", "Energy route", "Energy route", "Component", "Component", "Component", "Component", "Component", "Component", "Component", "Component", "Component", "Component", "Component", "Component", "Component"],
        "node_subtype": ["System", "NA", "NA", "NA", "NA", " umbilical", " umbilical", " passive hub", " array", " array", " export", " dry-mate", " wet-mate", " wet-mate", " wet-mate", " wet-mate", " wet-mate", " wet-mate"],
        "category": ["Level 3", "Level 2", "Level 2", "Level 1", "Level 1", "Level 0", "Level 0", "Level 0", "Level 0", "Level 0", "Level 0", "Level 0", "Level 0", "Level 0", "Level 0", "Level 0", "Level 0", "Level 0"],
        "parent": ["NA", "NA", "NA", ["ED1"], ["ED2"], ["Route1_1"], ["Route1_1", "Route2_1"], ["Route1_1", "Route2_1"], ["Route1_1"], ["Route1_1", "Route2_1"], ["Route1_1", "Route2_1"], ["Route1_1", "Route2_1"], ["Route1_1"], ["Route1_1"], ["Route1_1"], ["Route1_1", "Route2_1"], ["Route1_1", "Route2_1"], ["Route1_1", "Route2_1"]],
        "child": [["ED1", "ED2"], ["Route1_1"], ["Route2_1"], ["12", "11", "10", "9", "8", "7", "6", "5", "4", "3", "2", "1", "0"], ["7", "6", "5", "4", "3", "2", "1", "0"], "NA", "NA", "NA", "NA", "NA", "NA", "NA", "NA", "NA", "NA", "NA", "NA", "NA"],
        "gate_type": ["OR", "OR", "OR", "AND", "AND", "NA", "NA", "NA", "NA", "NA", "NA", "NA", "NA", "NA", "NA", "NA", "NA", "NA"],
        "failure_rate_repair": ["NA", "NA", "NA", "NA", "NA", 0.4576141227726697, 0.4576141227726697, 2.457042, 2.052, 0.171, 17.271, 5.42244, 5.42244, 5.42244, 5.42244, 5.42244, 5.42244, 5.42244], "failure_rate_replacement": ["NA", "NA", "NA", "NA", "NA", 0.4576141227726697, 0.4576141227726697, 2.457042, 2.052, 0.171, 17.271, 5.42244, 5.42244, 5.42244, 5.42244, 5.42244, 5.42244, 5.42244]
    }
}
