{
    "category": ["Level 3","Level 2","Level 1","Level 0","Level 0","Level 0","Level 1","Level 0",
    "Level 0","Level 0","Level 1","Level 0","Level 0","Level 0","Level 2","Level 1","Level 0","Level 0","Level 0","Level 1","Level 0","Level 0","Level 0","Level 1","Level 0","Level 0","Level 0"],
    "child": [["DEV_0","DEV_1"],["DEV_0_PTO_0_0","DEV_0_PTO_1_0","DEV_0_PTO_2_0"],["DEV_0_PTO_0_0_MechT","DEV_0_PTO_0_0_ElectT","DEV_0_PTO_0_0_GridC"],["NA"],["NA"],["NA"],
        ["DEV_0_PTO_1_0_MechT","DEV_0_PTO_1_0_ElectT","DEV_0_PTO_1_0_GridC"],["NA"],["NA"],["NA"],
        ["DEV_0_PTO_2_0_MechT","DEV_0_PTO_2_0_ElectT","DEV_0_PTO_2_0_GridC"],["NA"],["NA"],["NA"],
        ["DEV_1_PTO_0_0","DEV_1_PTO_1_0","DEV_1_PTO_2_0"],
        ["DEV_1_PTO_0_0_MechT","DEV_1_PTO_0_0_ElectT","DEV_1_PTO_0_0_GridC"],["NA"],["NA"],["NA"],
        ["DEV_1_PTO_1_0_MechT","DEV_1_PTO_1_0_ElectT","DEV_1_PTO_1_0_GridC"],["NA"],["NA"],["NA"],
        ["DEV_1_PTO_2_0_MechT","DEV_1_PTO_2_0_ElectT","DEV_1_PTO_2_0_GridC"],["NA"],["NA"],["NA"]],
    "design_id": ["Array_01","Array_01","Array_01","Array_01","Array_01","Array_01","Array_01","Array_01","Array_01","Array_01","Array_01","Array_01","Array_01","Array_01","Array_01","Array_01","Array_01","Array_01","Array_01","Array_01","Array_01","Array_01","Array_01","Array_01","Array_01","Array_01","Array_01"],
    "failure_rate_repair": ["NA","NA","NA",2.517894594637399e-4,1.2815349288344602e-3,5.994451644910028e-4,"NA",2.517894594637399e-4,1.2815349288344602e-3,5.994451644910028e-4,"NA",
    2.517894594637399e-4,1.2815349288344602e-3,5.994451644910028e-4,"NA","NA",2.517894594637399e-4,
    1.2815349288344602e-3,5.994451644910028e-4,"NA",2.517894594637399e-4,1.2815349288344602e-3,5.994451644910028e-4,"NA",2.517894594637399e-4,1.2815349288344602e-3,5.994451644910028e-4],
    "failure_rate_replacement": ["NA","NA","NA","NA","NA","NA","NA","NA","NA","NA","NA","NA","NA","NA","NA","NA","NA","NA","NA","NA","NA","NA","NA","NA","NA","NA","NA"],
    "gate_type": ["AND","1/3","AND","AND","AND","AND","AND","AND","AND","AND","AND","AND","AND","AND","1/3","AND","AND","AND","AND","AND","AND","AND","AND","AND","AND","AND","AND"],
    "name_of_node": ["Array_01","DEV_0","DEV_0_PTO_0_0","DEV_0_PTO_0_0_MechT","DEV_0_PTO_0_0_ElectT","DEV_0_PTO_0_0_GridC","DEV_0_PTO_1_0","DEV_0_PTO_1_0_MechT","DEV_0_PTO_1_0_ElectT","DEV_0_PTO_1_0_GridC","DEV_0_PTO_2_0","DEV_0_PTO_2_0_MechT","DEV_0_PTO_2_0_ElectT","DEV_0_PTO_2_0_GridC","DEV_1","DEV_1_PTO_0_0","DEV_1_PTO_0_0_MechT","DEV_1_PTO_0_0_ElectT","DEV_1_PTO_0_0_GridC","DEV_1_PTO_1_0","DEV_1_PTO_1_0_MechT","DEV_1_PTO_1_0_ElectT","DEV_1_PTO_1_0_GridC","DEV_1_PTO_2_0","DEV_1_PTO_2_0_MechT","DEV_1_PTO_2_0_ElectT","DEV_1_PTO_2_0_GridC"],
    "node_subtype": ["NA","NA","NA","NA","NA","NA","NA","NA","NA","NA","NA","NA","NA","NA","NA","NA","NA","NA","NA","NA","NA","NA","NA","NA","NA","NA","NA"],
    "node_type": ["System","Device","PTO","Component","Component","Component","PTO","Component","Component","Component","PTO","Component","Component","Component","Device","PTO","Component","Component","Component","PTO","Component","Component","Component","PTO","Component","Component","Component"],
    "parent": ["NA","Array_01","DEV_0","DEV_0_PTO_0_0","DEV_0_PTO_0_0","DEV_0_PTO_0_0","DEV_0","DEV_0_PTO_1_0","DEV_0_PTO_1_0","DEV_0_PTO_1_0","DEV_0","DEV_0_PTO_2_0","DEV_0_PTO_2_0","DEV_0_PTO_2_0","Array_01","DEV_1","DEV_1_PTO_0_0","DEV_1_PTO_0_0","DEV_1_PTO_0_0","DEV_1","DEV_1_PTO_1_0","DEV_1_PTO_1_0","DEV_1_PTO_1_0","DEV_1","DEV_1_PTO_2_0","DEV_1_PTO_2_0","DEV_1_PTO_2_0"],
    "system": ["ET","ET","ET","ET","ET","ET","ET","ET","ET","ET","ET","ET","ET","ET","ET","ET","ET","ET","ET","ET","ET","ET","ET","ET","ET","ET","ET"]
}
