{
    "project_life": 20,
    "n_devices": 2,
    "downtime": [
      {
        "device_id": "device_1",
        "downtime_table": {
          "year": [0, 1, 2, 3, 4, 5, 6, 7, 8, 9, 10, 11, 12, 13, 14, 15, 16, 17, 18, 19, 20],
          "jan": [
              0.0,
              0.0,
              0.0,
              0.0,
              0.0,
              0.0,
              0.0,
              0.0,
              0.0,
              0.0,
              0.0,
              0.0,
              0.0,
              0.0,
              0.0,
              0.0,
              0.0,
              0.0,
              0.0,
              0.0,
              0.0
          ],
          "feb": [
              0.0,
              0.0,
              0.0,
              0.0,
              0.0,
              0.0,
              0.0,
              0.0,
              0.0,
              0.0,
              0.0,
              0.0,
              0.0,
              0.0,
              0.0,
              0.0,
              0.0,
              0.0,
              0.0,
              0.0,
              176.409
          ],
          "mar": [
              0.0,
              0.0,
              0.0,
              0.0,
              95.7045,
              0.0,
              0.0,
              0.0,
              0.0,
              0.0,
              0.0,
              0.0,
              0.0,
              197.409,
              0.0,
              0.0,
              0.0,
              0.0,
              0.0,
              135.409,
              22.182
          ],
          "apr": [
              0.0,
              0.0,
              0.0,
              0.0,
              3.591,
              62.295500000000004,
              0.0,
              0.0,
              0.0,
              0.0,
              0.0,
              0.0,
              0.0,
              1.182,
              0.0,
              0.0,
              0.0,
              0.0,
              0.0,
              63.182,
              0.0
          ],
          "may": [
              0.0,
              0.0,
              0.0,
              24.0,
              0.0,
              0.0,
              24.0,
              0.0,
              0.0,
              24.0,
              0.0,
              0.0,
              24.0,
              0.0,
              0.0,
              24.0,
              0.0,
              0.0,
              24.0,
              0.0,
              0.0
          ],
          "jun": [
              0.0,
              0.0,
              0.0,
              24.7045,
              0.0,
              0.0,
              0.0,
              0.0,
              0.0,
              124.59100000000001,
              0.0,
              0.0,
              124.59100000000001,
              0.0,
              0.0,
              0.0,
              0.0,
              0.0,
              124.59100000000001,
              0.0,
              0.0
          ],
          "jul": [
              0.0,
              0.0,
              0.0,
              37.591,
              0.0,
              0.0,
              0.0,
              0.0,
              0.0,
              0.0,
              0.0,
              0.0,
              105.40899999999999,
              0.0,
              0.0,
              0.0,
              0.0,
              0.0,
              0.0,
              0.0,
              0.0
          ],
          "aug": [
              0.0,
              0.0,
              0.0,
              0.0,
              0.0,
              0.0,
              0.0,
              0.0,
              0.0,
              0.0,
              0.0,
              0.0,
              19.182,
              0.0,
              0.0,
              0.0,
              0.0,
              0.0,
              0.0,
              0.0,
              0.0
          ],
          "sep": [
              0.0,
              0.0,
              0.0,
              0.0,
              0.0,
              0.0,
              0.0,
              0.0,
              0.0,
              0.0,
              0.0,
              0.0,
              0.0,
              0.0,
              0.0,
              0.0,
              0.0,
              0.0,
              0.0,
              0.0,
              0.0
          ],
          "oct": [
              0.0,
              0.0,
              83.29549999999999,
              0.0,
              0.0,
              0.0,
              0.0,
              166.59099999999998,
              0.0,
              0.0,
              0.0,
              166.59099999999998,
              0.0,
              0.0,
              0.0,
              0.0,
              0.0,
              0.0,
              0.0,
              184.59099999999998,
              0.0
          ],
          "nov": [
              0.0,
              0.0,
              0.0,
              0.0,
              0.0,
              166.59099999999998,
              0.0,
              0.0,
              0.0,
              0.0,
              0.0,
              166.59099999999998,
              0.0,
              0.0,
              0.0,
              39.409,
              0.0,
              56.409,
              166.59099999999998,
              0.0,
              0.0
          ],
          "dec": [
              0.0,
              0.0,
              0.0,
              0.0,
              0.0,
              0.0,
              0.0,
              0.0,
              0.0,
              0.0,
              0.0,
              0.0,
              0.0,
              0.0,
              0.0,
              127.182,
              0.0,
              110.182,
              186.59099999999998,
              0.0,
              0.0
          ]
        }
      }
    ]
  }
