{
  "rotor_diameter": 10.0,
  "hub_height": 20.0,
  "floating": false,
  "cut_in_velocity": 1,
  "cut_out_velocity": 10,
  "cp": 0.3,
  "ct": 1.0,
  "rated_pow_device": 500.0,
  "number_rotor": 1,
  "rotor_interdistance": 0
}
