{
  "_links": {
    "self": "http://project-srv/projects/1234/study/1",
  },
  "name": "Study 1",
  "objects": [
    {
      "url": "http://project-srv/projects/1234/study/1/objects/1"
    },
    {
      "url": "http://project-srv/projects/1234/study/1/objects/2"
    }
  ]
}
