{
        "__type__": "dtoesa:CFP:CFPList",
        "name": "none",
        "description": "",
        "CFP_global": {
            "__type__": "dtoesa:CFP:CFP_global",
            "name": "none",
            "description": "",
            "GWP": 0.01648182091586897,
            "CED": 0.21426071736369878
        },
        "CFP_phase": {
            "__type__": "dtoesa:CFP:CFP_phase",
            "name": "none",
            "description": "",
            "cfp_production": {
                "__type__": "dtoesa:CFP:CFP_results",
                "name": "Production",
                "description": "Carbon footprint for phase Production considering manufacturing processes of materials",
                "GWP": 0.005463336327326085,
                "CED": 0.04594798889028648
            },
            "cfp_installation": {
                "__type__": "dtoesa:CFP:CFP_results",
                "name": "Installation",
                "description": "Carbon footprint for marine operations in phase Installation",
                "GWP": 0.002745023164044656,
                "CED": 0.04193156824337623
            },
            "cfp_exploitation": {
                "__type__": "dtoesa:CFP:CFP_results",
                "name": "Exploitation",
                "description": "Carbon footprint for marine operations in phase Exploitation",
                "GWP": 0.0032249223185979174,
                "CED": 0.04926226199221823
            },
            "cfp_dismantling": {
                "__type__": "dtoesa:CFP:CFP_results",
                "name": "Dismantling",
                "description": "Carbon footprint for marine operations in phase Dismantling",
                "GWP": 0.005048539105900311,
                "CED": 0.07711889823781783
            },
            "cfp_treatment": {
                "__type__": "dtoesa:CFP:CFP_results",
                "name": "Treatment",
                "description": "Carbon footprint for phase  Treatmentconsidering recycling of materials",
                "GWP": 0.0,
                "CED": 0.0
            }
        }
    }
